dumps/dump_cpu1.vcd
$date
	2021-12-06 17:28
$end
$timescale 1ps $end
$scope 1ps $end
$var wire 1 ! main_basesoc_depacketizer_cmp_source_valid $end
$var wire 1 " main_basesoc_depacketizer_cmp_source_ready $end
$var wire 1 # main_basesoc_depacketizer_cmp_source_first $end
$var wire 1 $ main_basesoc_depacketizer_cmp_source_last $end
$var wire 32 % main_basesoc_depacketizer_cmp_source_payload_adr $end
$var wire 10 & main_basesoc_depacketizer_cmp_source_payload_len $end
$var wire 1 ' main_basesoc_depacketizer_cmp_source_payload_end $end
$var wire 16 ( main_basesoc_depacketizer_cmp_source_payload_req_id $end
$var wire 16 ) main_basesoc_depacketizer_cmp_source_payload_cmp_id $end
$var wire 1 * main_basesoc_depacketizer_cmp_source_payload_err $end
$var wire 8 + main_basesoc_depacketizer_cmp_source_payload_tag $end
$var wire 64 , main_basesoc_depacketizer_cmp_source_payload_dat $end
$var wire 8 - main_basesoc_depacketizer_cmp_source_payload_channel $end
$var wire 8 . main_basesoc_depacketizer_cmp_source_payload_user_id $end
$var wire 1 / scope_clk $end
$var wire 1 0 scope_trig $end
$unscope  $end
$enddefinitions  $end
$dumpvars
bx !
bx "
bx #
bx $
bxxxxxxxxxxxxxxxxxxxxxxxxxxxxxxxx %
bxxxxxxxxxx &
bx '
bxxxxxxxxxxxxxxxx (
bxxxxxxxxxxxxxxxx )
bx *
bxxxxxxxx +
bxxxxxxxxxxxxxxxxxxxxxxxxxxxxxxxxxxxxxxxxxxxxxxxxxxxxxxxxxxxxxxxx ,
bxxxxxxxx -
bxxxxxxxx .
bx /
bx 0
$end
#0
b0 !
b1 "
b0 #
b0 $
b00000000000000000000000000001100 %
b0000000001 &
b0 '
b1111110010010000 (
b0000000000000000 )
b0 *
b01010000 +
b0000000000000000000000000000000000000000000000000000000000000000 ,
b00000000 -
b00000000 .
b1 /
b0 0
#1
b0 !
b1 "
b0 #
b0 $
b00000000000000000000000000001100 %
b0000000001 &
b0 '
b1111110010010000 (
b0000000000000000 )
b0 *
b01010000 +
b0000000000000000000000000000000000000000000000000000000000000000 ,
b00000000 -
b00000000 .
b0 /
b0 0
#2
b0 !
b1 "
b0 #
b0 $
b00000000000000000000000000001100 %
b0000000001 &
b0 '
b1111110010010000 (
b0000000000000000 )
b0 *
b01010000 +
b0000000000000000000000000000000000000000000000000000000000000000 ,
b00000000 -
b00000000 .
b1 /
b0 0
#3
b0 !
b1 "
b0 #
b0 $
b00000000000000000000000000001100 %
b0000000001 &
b0 '
b1111110010010000 (
b0000000000000000 )
b0 *
b01010000 +
b0000000000000000000000000000000000000000000000000000000000000000 ,
b00000000 -
b00000000 .
b0 /
b0 0
#4
b0 !
b1 "
b0 #
b0 $
b00000000000000000000000000001100 %
b0000000001 &
b0 '
b1111110010010000 (
b0000000000000000 )
b0 *
b01010000 +
b0000000000000000000000000000000000000000000000000000000000000000 ,
b00000000 -
b00000000 .
b1 /
b0 0
#5
b0 !
b1 "
b0 #
b0 $
b00000000000000000000000000001100 %
b0000000001 &
b0 '
b1111110010010000 (
b0000000000000000 )
b0 *
b01010000 +
b0000000000000000000000000000000000000000000000000000000000000000 ,
b00000000 -
b00000000 .
b0 /
b0 0
#6
b0 !
b1 "
b0 #
b0 $
b00000000000000000000000000001100 %
b0000000001 &
b0 '
b1111110010010000 (
b0000000000000000 )
b0 *
b01010000 +
b0000000000000000000000000000000000000000000000000000000000000000 ,
b00000000 -
b00000000 .
b1 /
b0 0
#7
b0 !
b1 "
b0 #
b0 $
b00000000000000000000000000001100 %
b0000000001 &
b0 '
b1111110010010000 (
b0000000000000000 )
b0 *
b01010000 +
b0000000000000000000000000000000000000000000000000000000000000000 ,
b00000000 -
b00000000 .
b0 /
b0 0
#8
b0 !
b1 "
b0 #
b0 $
b00000000000000000000000000001100 %
b0000000001 &
b0 '
b1111110010010000 (
b0000000000000000 )
b0 *
b01010000 +
b0000000000000000000000000000000000000000000000000000000000000000 ,
b00000000 -
b00000000 .
b1 /
b0 0
#9
b0 !
b1 "
b0 #
b0 $
b00000000000000000000000000001100 %
b0000000001 &
b0 '
b1111110010010000 (
b0000000000000000 )
b0 *
b01010000 +
b0000000000000000000000000000000000000000000000000000000000000000 ,
b00000000 -
b00000000 .
b0 /
b0 0
#10
b0 !
b1 "
b0 #
b0 $
b00000000000000000000000000001100 %
b0000000001 &
b0 '
b1111110010010000 (
b0000000000000000 )
b0 *
b01010000 +
b0000000000000000000000000000000000000000000000000000000000000000 ,
b00000000 -
b00000000 .
b1 /
b0 0
#11
b0 !
b1 "
b0 #
b0 $
b00000000000000000000000000001100 %
b0000000001 &
b0 '
b1111110010010000 (
b0000000000000000 )
b0 *
b01010000 +
b0000000000000000000000000000000000000000000000000000000000000000 ,
b00000000 -
b00000000 .
b0 /
b0 0
#12
b0 !
b1 "
b0 #
b0 $
b00000000000000000000000000001100 %
b0000000001 &
b0 '
b1111110010010000 (
b0000000000000000 )
b0 *
b01010000 +
b0000000000000000000000000000000000000000000000000000000000000000 ,
b00000000 -
b00000000 .
b1 /
b0 0
#13
b0 !
b1 "
b0 #
b0 $
b00000000000000000000000000001100 %
b0000000001 &
b0 '
b1111110010010000 (
b0000000000000000 )
b0 *
b01010000 +
b0000000000000000000000000000000000000000000000000000000000000000 ,
b00000000 -
b00000000 .
b0 /
b0 0
#14
b0 !
b1 "
b0 #
b0 $
b00000000000000000000000000001100 %
b0000000001 &
b0 '
b1111110010010000 (
b0000000000000000 )
b0 *
b01010000 +
b0000000000000000000000000000000000000000000000000000000000000000 ,
b00000000 -
b00000000 .
b1 /
b0 0
#15
b0 !
b1 "
b0 #
b0 $
b00000000000000000000000000001100 %
b0000000001 &
b0 '
b1111110010010000 (
b0000000000000000 )
b0 *
b01010000 +
b0000000000000000000000000000000000000000000000000000000000000000 ,
b00000000 -
b00000000 .
b0 /
b0 0
#16
b0 !
b1 "
b0 #
b0 $
b00000000000000000000000000001100 %
b0000000001 &
b0 '
b1111110010010000 (
b0000000000000000 )
b0 *
b01010000 +
b0000000000000000000000000000000000000000000000000000000000000000 ,
b00000000 -
b00000000 .
b1 /
b0 0
#17
b0 !
b1 "
b0 #
b0 $
b00000000000000000000000000001100 %
b0000000001 &
b0 '
b1111110010010000 (
b0000000000000000 )
b0 *
b01010000 +
b0000000000000000000000000000000000000000000000000000000000000000 ,
b00000000 -
b00000000 .
b0 /
b0 0
#18
b0 !
b1 "
b0 #
b0 $
b00000000000000000000000000001100 %
b0000000001 &
b0 '
b1111110010010000 (
b0000000000000000 )
b0 *
b01010000 +
b0000000000000000000000000000000000000000000000000000000000000000 ,
b00000000 -
b00000000 .
b1 /
b0 0
#19
b0 !
b1 "
b0 #
b0 $
b00000000000000000000000000001100 %
b0000000001 &
b0 '
b1111110010010000 (
b0000000000000000 )
b0 *
b01010000 +
b0000000000000000000000000000000000000000000000000000000000000000 ,
b00000000 -
b00000000 .
b0 /
b0 0
#20
b0 !
b1 "
b0 #
b0 $
b00000000000000000000000000001100 %
b0000000001 &
b0 '
b1111110010010000 (
b0000000000000000 )
b0 *
b01010000 +
b0000000000000000000000000000000000000000000000000000000000000000 ,
b00000000 -
b00000000 .
b1 /
b0 0
#21
b0 !
b1 "
b0 #
b0 $
b00000000000000000000000000001100 %
b0000000001 &
b0 '
b1111110010010000 (
b0000000000000000 )
b0 *
b01010000 +
b0000000000000000000000000000000000000000000000000000000000000000 ,
b00000000 -
b00000000 .
b0 /
b0 0
#22
b0 !
b1 "
b0 #
b0 $
b00000000000000000000000000001100 %
b0000000001 &
b0 '
b1111110010010000 (
b0000000000000000 )
b0 *
b01010000 +
b0000000000000000000000000000000000000000000000000000000000000000 ,
b00000000 -
b00000000 .
b1 /
b0 0
#23
b0 !
b1 "
b0 #
b0 $
b00000000000000000000000000001100 %
b0000000001 &
b0 '
b1111110010010000 (
b0000000000000000 )
b0 *
b01010000 +
b0000000000000000000000000000000000000000000000000000000000000000 ,
b00000000 -
b00000000 .
b0 /
b0 0
#24
b0 !
b1 "
b0 #
b0 $
b00000000000000000000000000001100 %
b0000000001 &
b0 '
b1111110010010000 (
b0000000000000000 )
b0 *
b01010000 +
b0000000000000000000000000000000000000000000000000000000000000000 ,
b00000000 -
b00000000 .
b1 /
b0 0
#25
b0 !
b1 "
b0 #
b0 $
b00000000000000000000000000001100 %
b0000000001 &
b0 '
b1111110010010000 (
b0000000000000000 )
b0 *
b01010000 +
b0000000000000000000000000000000000000000000000000000000000000000 ,
b00000000 -
b00000000 .
b0 /
b0 0
#26
b0 !
b1 "
b0 #
b0 $
b00000000000000000000000000001100 %
b0000000001 &
b0 '
b1111110010010000 (
b0000000000000000 )
b0 *
b01010000 +
b0000000000000000000000000000000000000000000000000000000000000000 ,
b00000000 -
b00000000 .
b1 /
b0 0
#27
b0 !
b1 "
b0 #
b0 $
b00000000000000000000000000001100 %
b0000000001 &
b0 '
b1111110010010000 (
b0000000000000000 )
b0 *
b01010000 +
b0000000000000000000000000000000000000000000000000000000000000000 ,
b00000000 -
b00000000 .
b0 /
b0 0
#28
b0 !
b1 "
b0 #
b0 $
b00000000000000000000000000001100 %
b0000000001 &
b0 '
b1111110010010000 (
b0000000000000000 )
b0 *
b01010000 +
b0000000000000000000000000000000000000000000000000000000000000000 ,
b00000000 -
b00000000 .
b1 /
b0 0
#29
b0 !
b1 "
b0 #
b0 $
b00000000000000000000000000001100 %
b0000000001 &
b0 '
b1111110010010000 (
b0000000000000000 )
b0 *
b01010000 +
b0000000000000000000000000000000000000000000000000000000000000000 ,
b00000000 -
b00000000 .
b0 /
b0 0
#30
b0 !
b1 "
b0 #
b0 $
b00000000000000000000000000001100 %
b0000000001 &
b0 '
b1111110010010000 (
b0000000000000000 )
b0 *
b01010000 +
b0000000000000000000000000000000000000000000000000000000000000000 ,
b00000000 -
b00000000 .
b1 /
b0 0
#31
b0 !
b1 "
b0 #
b0 $
b00000000000000000000000000001100 %
b0000000001 &
b0 '
b1111110010010000 (
b0000000000000000 )
b0 *
b01010000 +
b0000000000000000000000000000000000000000000000000000000000000000 ,
b00000000 -
b00000000 .
b0 /
b0 0
#32
b0 !
b1 "
b0 #
b0 $
b00000000000000000000000000001100 %
b0000000001 &
b0 '
b1111110010010000 (
b0000000000000000 )
b0 *
b01010000 +
b0000000000000000000000000000000000000000000000000000000000000000 ,
b00000000 -
b00000000 .
b1 /
b1 0
#33
b0 !
b1 "
b0 #
b0 $
b00000000000000000000000000001100 %
b0000000001 &
b0 '
b1111110010010000 (
b0000000000000000 )
b0 *
b01010000 +
b0000000000000000000000000000000000000000000000000000000000000000 ,
b00000000 -
b00000000 .
b0 /
b1 0
#34
b0 !
b1 "
b0 #
b0 $
b00000000000000000000000000001100 %
b0000000001 &
b0 '
b1111110010010000 (
b0000000000000000 )
b0 *
b01010000 +
b0000000000000000000000000000000000000000000000000000000000000000 ,
b00000000 -
b00000000 .
b1 /
b1 0
#35
b0 !
b1 "
b0 #
b0 $
b00000000000000000000000000001100 %
b0000000001 &
b0 '
b1111110010010000 (
b0000000000000000 )
b0 *
b01010000 +
b0000000000000000000000000000000000000000000000000000000000000000 ,
b00000000 -
b00000000 .
b0 /
b1 0
#36
b0 !
b1 "
b0 #
b0 $
b00000000000000000000000000001100 %
b0000000001 &
b0 '
b1111110010010000 (
b0000000000000000 )
b0 *
b01010000 +
b0000000000000000000000000000000000000000000000000000000000000000 ,
b00000000 -
b00000000 .
b1 /
b1 0
#37
b0 !
b1 "
b0 #
b0 $
b00000000000000000000000000001100 %
b0000000001 &
b0 '
b1111110010010000 (
b0000000000000000 )
b0 *
b01010000 +
b0000000000000000000000000000000000000000000000000000000000000000 ,
b00000000 -
b00000000 .
b0 /
b1 0
#38
b0 !
b1 "
b0 #
b0 $
b00000000000000000000000000001100 %
b0000000001 &
b0 '
b1111110010010000 (
b0000000000000000 )
b0 *
b01010000 +
b0000000000000000000000000000000000000000000000000000000000000000 ,
b00000000 -
b00000000 .
b1 /
b1 0
#39
b0 !
b1 "
b0 #
b0 $
b00000000000000000000000000001100 %
b0000000001 &
b0 '
b1111110010010000 (
b0000000000000000 )
b0 *
b01010000 +
b0000000000000000000000000000000000000000000000000000000000000000 ,
b00000000 -
b00000000 .
b0 /
b1 0
#40
b0 !
b1 "
b0 #
b0 $
b00000000000000000000000000001100 %
b0000000001 &
b0 '
b1111110010010000 (
b0000000000000000 )
b0 *
b01010000 +
b0000000000000000000000000000000000000000000000000000000000000000 ,
b00000000 -
b00000000 .
b1 /
b1 0
#41
b0 !
b1 "
b0 #
b0 $
b00000000000000000000000000001100 %
b0000000001 &
b0 '
b1111110010010000 (
b0000000000000000 )
b0 *
b01010000 +
b0000000000000000000000000000000000000000000000000000000000000000 ,
b00000000 -
b00000000 .
b0 /
b1 0
#42
b0 !
b1 "
b0 #
b0 $
b00000000000000000000000000001100 %
b0000000001 &
b0 '
b1111110010010000 (
b0000000000000000 )
b0 *
b01010000 +
b0000000000000000000000000000000000000000000000000000000000000000 ,
b00000000 -
b00000000 .
b1 /
b1 0
#43
b0 !
b1 "
b0 #
b0 $
b00000000000000000000000000001100 %
b0000000001 &
b0 '
b1111110010010000 (
b0000000000000000 )
b0 *
b01010000 +
b0000000000000000000000000000000000000000000000000000000000000000 ,
b00000000 -
b00000000 .
b0 /
b1 0
#44
b0 !
b1 "
b0 #
b0 $
b00000000000000000000000000001100 %
b0000000001 &
b0 '
b1111110010010000 (
b0000000000000000 )
b0 *
b01010000 +
b0000000000000000000000000000000000000000000000000000000000000000 ,
b00000000 -
b00000000 .
b1 /
b1 0
#45
b0 !
b1 "
b0 #
b0 $
b00000000000000000000000000001100 %
b0000000001 &
b0 '
b1111110010010000 (
b0000000000000000 )
b0 *
b01010000 +
b0000000000000000000000000000000000000000000000000000000000000000 ,
b00000000 -
b00000000 .
b0 /
b1 0
#46
b0 !
b1 "
b0 #
b0 $
b00000000000000000000000000001100 %
b0000000001 &
b0 '
b1111110010010000 (
b0000000000000000 )
b0 *
b01010000 +
b0000000000000000000000000000000000000000000000000000000000000000 ,
b00000000 -
b00000000 .
b1 /
b1 0
#47
b0 !
b1 "
b0 #
b0 $
b00000000000000000000000000001100 %
b0000000001 &
b0 '
b1111110010010000 (
b0000000000000000 )
b0 *
b01010000 +
b0000000000000000000000000000000000000000000000000000000000000000 ,
b00000000 -
b00000000 .
b0 /
b1 0
#48
b0 !
b1 "
b0 #
b0 $
b00000000000000000000000000001100 %
b0000000001 &
b0 '
b1111110010010000 (
b0000000000000000 )
b0 *
b01010000 +
b0000000000000000000000000000000000000000000000000000000000000000 ,
b00000000 -
b00000000 .
b1 /
b1 0
#49
b0 !
b1 "
b0 #
b0 $
b00000000000000000000000000001100 %
b0000000001 &
b0 '
b1111110010010000 (
b0000000000000000 )
b0 *
b01010000 +
b0000000000000000000000000000000000000000000000000000000000000000 ,
b00000000 -
b00000000 .
b0 /
b1 0
#50
b0 !
b1 "
b0 #
b0 $
b00000000000000000000000000001100 %
b0000000001 &
b0 '
b1111110010010000 (
b0000000000000000 )
b0 *
b01010000 +
b0000000000000000000000000000000000000000000000000000000000000000 ,
b00000000 -
b00000000 .
b1 /
b1 0
#51
b0 !
b1 "
b0 #
b0 $
b00000000000000000000000000001100 %
b0000000001 &
b0 '
b1111110010010000 (
b0000000000000000 )
b0 *
b01010000 +
b0000000000000000000000000000000000000000000000000000000000000000 ,
b00000000 -
b00000000 .
b0 /
b1 0
#52
b0 !
b1 "
b0 #
b0 $
b00000000000000000000000000001100 %
b0000000001 &
b0 '
b1111110010010000 (
b0000000000000000 )
b0 *
b01010000 +
b0000000000000000000000000000000000000000000000000000000000000000 ,
b00000000 -
b00000000 .
b1 /
b1 0
#53
b0 !
b1 "
b0 #
b0 $
b00000000000000000000000000001100 %
b0000000001 &
b0 '
b1111110010010000 (
b0000000000000000 )
b0 *
b01010000 +
b0000000000000000000000000000000000000000000000000000000000000000 ,
b00000000 -
b00000000 .
b0 /
b1 0
#54
b0 !
b1 "
b0 #
b0 $
b00000000000000000000000000001100 %
b0000000001 &
b0 '
b1111110010010000 (
b0000000000000000 )
b0 *
b01010000 +
b0000000000000000000000000000000000000000000000000000000000000000 ,
b00000000 -
b00000000 .
b1 /
b1 0
#55
b0 !
b1 "
b0 #
b0 $
b00000000000000000000000000001100 %
b0000000001 &
b0 '
b1111110010010000 (
b0000000000000000 )
b0 *
b01010000 +
b0000000000000000000000000000000000000000000000000000000000000000 ,
b00000000 -
b00000000 .
b0 /
b1 0
#56
b0 !
b1 "
b0 #
b0 $
b00000000000000000000000000001100 %
b0000000001 &
b0 '
b1111110010010000 (
b0000000000000000 )
b0 *
b01010000 +
b0000000000000000000000000000000000000000000000000000000000000000 ,
b00000000 -
b00000000 .
b1 /
b1 0
#57
b0 !
b1 "
b0 #
b0 $
b00000000000000000000000000001100 %
b0000000001 &
b0 '
b1111110010010000 (
b0000000000000000 )
b0 *
b01010000 +
b0000000000000000000000000000000000000000000000000000000000000000 ,
b00000000 -
b00000000 .
b0 /
b1 0
#58
b0 !
b1 "
b0 #
b0 $
b00000000000000000000000000000001 %
b0000001100 &
b0 '
b0100101000000000 (
b0000000100000000 )
b0 *
b00000000 +
b0000000000000000000000000000000000000000000000000000000000000000 ,
b00000000 -
b00000000 .
b1 /
b1 0
#59
b0 !
b1 "
b0 #
b0 $
b00000000000000000000000000000001 %
b0000001100 &
b0 '
b0100101000000000 (
b0000000100000000 )
b0 *
b00000000 +
b0000000000000000000000000000000000000000000000000000000000000000 ,
b00000000 -
b00000000 .
b0 /
b1 0
#60
b1 !
b0 "
b1 #
b1 $
b00000000000000000000000000000000 %
b0000000001 &
b1 '
b0010110100000000 (
b0000000000011001 )
b0 *
b00000000 +
b0000000100010000000000000100000000000000000000000000000000000000 ,
b00000000 -
b00000000 .
b1 /
b1 0
#61
b1 !
b0 "
b1 #
b1 $
b00000000000000000000000000000000 %
b0000000001 &
b1 '
b0010110100000000 (
b0000000000011001 )
b0 *
b00000000 +
b0000000100010000000000000100000000000000000000000000000000000000 ,
b00000000 -
b00000000 .
b0 /
b1 0
#62
b1 !
b1 "
b1 #
b1 $
b00000000000000000000000000000000 %
b0000000001 &
b1 '
b0010110100000000 (
b0000000000011001 )
b0 *
b00000000 +
b0000000100010000000000000100000000000000000000000000000000000000 ,
b00000000 -
b00000000 .
b1 /
b1 0
#63
b1 !
b1 "
b1 #
b1 $
b00000000000000000000000000000000 %
b0000000001 &
b1 '
b0010110100000000 (
b0000000000011001 )
b0 *
b00000000 +
b0000000100010000000000000100000000000000000000000000000000000000 ,
b00000000 -
b00000000 .
b0 /
b1 0
#64
b0 !
b1 "
b0 #
b0 $
b00000000000000000000000000000000 %
b0000000001 &
b1 '
b0010110100000000 (
b0000000000011001 )
b0 *
b00000000 +
b0000000100010000000000000100000000000000000000000000000000000000 ,
b00000000 -
b00000000 .
b1 /
b1 0
#65
b0 !
b1 "
b0 #
b0 $
b00000000000000000000000000000000 %
b0000000001 &
b1 '
b0010110100000000 (
b0000000000011001 )
b0 *
b00000000 +
b0000000100010000000000000100000000000000000000000000000000000000 ,
b00000000 -
b00000000 .
b0 /
b1 0
#66
b0 !
b1 "
b0 #
b0 $
b00000000000000000000000000000000 %
b0000000001 &
b1 '
b0010110100000000 (
b0000000000011001 )
b0 *
b00000000 +
b0000000100010000000000000100000000000000000000000000000000000000 ,
b00000000 -
b00000000 .
b1 /
b1 0
#67
b0 !
b1 "
b0 #
b0 $
b00000000000000000000000000000000 %
b0000000001 &
b1 '
b0010110100000000 (
b0000000000011001 )
b0 *
b00000000 +
b0000000100010000000000000100000000000000000000000000000000000000 ,
b00000000 -
b00000000 .
b0 /
b1 0
#68
b0 !
b1 "
b0 #
b0 $
b00000000000000000000000000000000 %
b0000000001 &
b1 '
b0010110100000000 (
b0000000000011001 )
b0 *
b00000000 +
b0000000100010000000000000100000000000000000000000000000000000000 ,
b00000000 -
b00000000 .
b1 /
b1 0
#69
b0 !
b1 "
b0 #
b0 $
b00000000000000000000000000000000 %
b0000000001 &
b1 '
b0010110100000000 (
b0000000000011001 )
b0 *
b00000000 +
b0000000100010000000000000100000000000000000000000000000000000000 ,
b00000000 -
b00000000 .
b0 /
b1 0
#70
b0 !
b1 "
b0 #
b0 $
b00000000000000000000000000000000 %
b0000000001 &
b1 '
b0010110100000000 (
b0000000000011001 )
b0 *
b00000000 +
b0000000100010000000000000100000000000000000000000000000000000000 ,
b00000000 -
b00000000 .
b1 /
b1 0
#71
b0 !
b1 "
b0 #
b0 $
b00000000000000000000000000000000 %
b0000000001 &
b1 '
b0010110100000000 (
b0000000000011001 )
b0 *
b00000000 +
b0000000100010000000000000100000000000000000000000000000000000000 ,
b00000000 -
b00000000 .
b0 /
b1 0
#72
b0 !
b1 "
b0 #
b0 $
b00000000000000000000000000000000 %
b0000000001 &
b1 '
b0010110100000000 (
b0000000000011001 )
b0 *
b00000000 +
b0000000100010000000000000100000000000000000000000000000000000000 ,
b00000000 -
b00000000 .
b1 /
b1 0
#73
b0 !
b1 "
b0 #
b0 $
b00000000000000000000000000000000 %
b0000000001 &
b1 '
b0010110100000000 (
b0000000000011001 )
b0 *
b00000000 +
b0000000100010000000000000100000000000000000000000000000000000000 ,
b00000000 -
b00000000 .
b0 /
b1 0
#74
b0 !
b1 "
b0 #
b0 $
b00000000000000000000000000000000 %
b0000000001 &
b1 '
b0010110100000000 (
b0000000000011001 )
b0 *
b00000000 +
b0000000100010000000000000100000000000000000000000000000000000000 ,
b00000000 -
b00000000 .
b1 /
b1 0
#75
b0 !
b1 "
b0 #
b0 $
b00000000000000000000000000000000 %
b0000000001 &
b1 '
b0010110100000000 (
b0000000000011001 )
b0 *
b00000000 +
b0000000100010000000000000100000000000000000000000000000000000000 ,
b00000000 -
b00000000 .
b0 /
b1 0
#76
b0 !
b1 "
b0 #
b0 $
b00000000000000000000000000000000 %
b0000000001 &
b1 '
b0010110100000000 (
b0000000000011001 )
b0 *
b00000000 +
b0000000100010000000000000100000000000000000000000000000000000000 ,
b00000000 -
b00000000 .
b1 /
b1 0
#77
b0 !
b1 "
b0 #
b0 $
b00000000000000000000000000000000 %
b0000000001 &
b1 '
b0010110100000000 (
b0000000000011001 )
b0 *
b00000000 +
b0000000100010000000000000100000000000000000000000000000000000000 ,
b00000000 -
b00000000 .
b0 /
b1 0
#78
b0 !
b1 "
b0 #
b0 $
b00000000000000000000000000000000 %
b0000000001 &
b1 '
b0010110100000000 (
b0000000000011001 )
b0 *
b00000000 +
b0000000100010000000000000100000000000000000000000000000000000000 ,
b00000000 -
b00000000 .
b1 /
b1 0
#79
b0 !
b1 "
b0 #
b0 $
b00000000000000000000000000000000 %
b0000000001 &
b1 '
b0010110100000000 (
b0000000000011001 )
b0 *
b00000000 +
b0000000100010000000000000100000000000000000000000000000000000000 ,
b00000000 -
b00000000 .
b0 /
b1 0
#80
b0 !
b1 "
b0 #
b0 $
b00000000000000000000000000000000 %
b0000000001 &
b1 '
b0010110100000000 (
b0000000000011001 )
b0 *
b00000000 +
b0000000100010000000000000100000000000000000000000000000000000000 ,
b00000000 -
b00000000 .
b1 /
b1 0
#81
b0 !
b1 "
b0 #
b0 $
b00000000000000000000000000000000 %
b0000000001 &
b1 '
b0010110100000000 (
b0000000000011001 )
b0 *
b00000000 +
b0000000100010000000000000100000000000000000000000000000000000000 ,
b00000000 -
b00000000 .
b0 /
b1 0
#82
b0 !
b1 "
b0 #
b0 $
b00000000000000000000000000000000 %
b0000000001 &
b1 '
b0010110100000000 (
b0000000000011001 )
b0 *
b00000000 +
b0000000100010000000000000100000000000000000000000000000000000000 ,
b00000000 -
b00000000 .
b1 /
b1 0
#83
b0 !
b1 "
b0 #
b0 $
b00000000000000000000000000000000 %
b0000000001 &
b1 '
b0010110100000000 (
b0000000000011001 )
b0 *
b00000000 +
b0000000100010000000000000100000000000000000000000000000000000000 ,
b00000000 -
b00000000 .
b0 /
b1 0
#84
b0 !
b1 "
b0 #
b0 $
b00000000000000000000000000000000 %
b0000000001 &
b1 '
b0010110100000000 (
b0000000000011001 )
b0 *
b00000000 +
b0000000100010000000000000100000000000000000000000000000000000000 ,
b00000000 -
b00000000 .
b1 /
b1 0
#85
b0 !
b1 "
b0 #
b0 $
b00000000000000000000000000000000 %
b0000000001 &
b1 '
b0010110100000000 (
b0000000000011001 )
b0 *
b00000000 +
b0000000100010000000000000100000000000000000000000000000000000000 ,
b00000000 -
b00000000 .
b0 /
b1 0
#86
b0 !
b1 "
b0 #
b0 $
b00000000000000000000000000000000 %
b0000000001 &
b1 '
b0010110100000000 (
b0000000000011001 )
b0 *
b00000000 +
b0000000100010000000000000100000000000000000000000000000000000000 ,
b00000000 -
b00000000 .
b1 /
b1 0
#87
b0 !
b1 "
b0 #
b0 $
b00000000000000000000000000000000 %
b0000000001 &
b1 '
b0010110100000000 (
b0000000000011001 )
b0 *
b00000000 +
b0000000100010000000000000100000000000000000000000000000000000000 ,
b00000000 -
b00000000 .
b0 /
b1 0
#88
b0 !
b1 "
b0 #
b0 $
b00000000000000000000000000000000 %
b0000000001 &
b1 '
b0010110100000000 (
b0000000000011001 )
b0 *
b00000000 +
b0000000100010000000000000100000000000000000000000000000000000000 ,
b00000000 -
b00000000 .
b1 /
b1 0
#89
b0 !
b1 "
b0 #
b0 $
b00000000000000000000000000000000 %
b0000000001 &
b1 '
b0010110100000000 (
b0000000000011001 )
b0 *
b00000000 +
b0000000100010000000000000100000000000000000000000000000000000000 ,
b00000000 -
b00000000 .
b0 /
b1 0
#90
b0 !
b1 "
b0 #
b0 $
b00000000000000000000000000000000 %
b0000000001 &
b1 '
b0010110100000000 (
b0000000000011001 )
b0 *
b00000000 +
b0000000100010000000000000100000000000000000000000000000000000000 ,
b00000000 -
b00000000 .
b1 /
b1 0
#91
b0 !
b1 "
b0 #
b0 $
b00000000000000000000000000000000 %
b0000000001 &
b1 '
b0010110100000000 (
b0000000000011001 )
b0 *
b00000000 +
b0000000100010000000000000100000000000000000000000000000000000000 ,
b00000000 -
b00000000 .
b0 /
b1 0
#92
b0 !
b1 "
b0 #
b0 $
b00000000000000000000000000000000 %
b0000000001 &
b1 '
b0010110100000000 (
b0000000000011001 )
b0 *
b00000000 +
b0000000100010000000000000100000000000000000000000000000000000000 ,
b00000000 -
b00000000 .
b1 /
b1 0
#93
b0 !
b1 "
b0 #
b0 $
b00000000000000000000000000000000 %
b0000000001 &
b1 '
b0010110100000000 (
b0000000000011001 )
b0 *
b00000000 +
b0000000100010000000000000100000000000000000000000000000000000000 ,
b00000000 -
b00000000 .
b0 /
b1 0
#94
b0 !
b1 "
b0 #
b0 $
b00000000000000000000000000000000 %
b0000000001 &
b1 '
b0010110100000000 (
b0000000000011001 )
b0 *
b00000000 +
b0000000100010000000000000100000000000000000000000000000000000000 ,
b00000000 -
b00000000 .
b1 /
b1 0
#95
b0 !
b1 "
b0 #
b0 $
b00000000000000000000000000000000 %
b0000000001 &
b1 '
b0010110100000000 (
b0000000000011001 )
b0 *
b00000000 +
b0000000100010000000000000100000000000000000000000000000000000000 ,
b00000000 -
b00000000 .
b0 /
b1 0
#96
b0 !
b1 "
b0 #
b0 $
b00000000000000000000000000000000 %
b0000000001 &
b1 '
b0010110100000000 (
b0000000000011001 )
b0 *
b00000000 +
b0000000100010000000000000100000000000000000000000000000000000000 ,
b00000000 -
b00000000 .
b1 /
b1 0
#97
b0 !
b1 "
b0 #
b0 $
b00000000000000000000000000000000 %
b0000000001 &
b1 '
b0010110100000000 (
b0000000000011001 )
b0 *
b00000000 +
b0000000100010000000000000100000000000000000000000000000000000000 ,
b00000000 -
b00000000 .
b0 /
b1 0
#98
b0 !
b1 "
b0 #
b0 $
b00000000000000000000000000000000 %
b0000000001 &
b1 '
b0010110100000000 (
b0000000000011001 )
b0 *
b00000000 +
b0000000100010000000000000100000000000000000000000000000000000000 ,
b00000000 -
b00000000 .
b1 /
b1 0
#99
b0 !
b1 "
b0 #
b0 $
b00000000000000000000000000000000 %
b0000000001 &
b1 '
b0010110100000000 (
b0000000000011001 )
b0 *
b00000000 +
b0000000100010000000000000100000000000000000000000000000000000000 ,
b00000000 -
b00000000 .
b0 /
b1 0
#100
b0 !
b1 "
b0 #
b0 $
b00000000000000000000000000000000 %
b0000000001 &
b1 '
b0010110100000000 (
b0000000000011001 )
b0 *
b00000000 +
b0000000100010000000000000100000000000000000000000000000000000000 ,
b00000000 -
b00000000 .
b1 /
b1 0
#101
b0 !
b1 "
b0 #
b0 $
b00000000000000000000000000000000 %
b0000000001 &
b1 '
b0010110100000000 (
b0000000000011001 )
b0 *
b00000000 +
b0000000100010000000000000100000000000000000000000000000000000000 ,
b00000000 -
b00000000 .
b0 /
b1 0
#102
b0 !
b1 "
b0 #
b0 $
b00000000000000000000000000000000 %
b0000000001 &
b1 '
b0010110100000000 (
b0000000000011001 )
b0 *
b00000000 +
b0000000100010000000000000100000000000000000000000000000000000000 ,
b00000000 -
b00000000 .
b1 /
b1 0
#103
b0 !
b1 "
b0 #
b0 $
b00000000000000000000000000000000 %
b0000000001 &
b1 '
b0010110100000000 (
b0000000000011001 )
b0 *
b00000000 +
b0000000100010000000000000100000000000000000000000000000000000000 ,
b00000000 -
b00000000 .
b0 /
b1 0
#104
b0 !
b1 "
b0 #
b0 $
b00000000000000000000000000000000 %
b0000000001 &
b1 '
b0010110100000000 (
b0000000000011001 )
b0 *
b00000000 +
b0000000100010000000000000100000000000000000000000000000000000000 ,
b00000000 -
b00000000 .
b1 /
b1 0
